CREATE TABLE folio_conf.filter_group
(
    filter_group_id                 NUMBER                          NOT NULL
  , separator                       VARCHAR2 (50)                   NOT NULL
  , parent_group_id                 NUMBER                          
  , created_by                      VARCHAR2 (30)                   
  , created_ts                      DATE                            
  , last_updated_by                 VARCHAR2 (30)                   
  , last_updated_ts                 DATE                            
)
PARALLEL
(
  DEGREE            1
  INSTANCES         1
)
;