CREATE TABLE folio_conf.folio
(
    folio_id                        NUMBER                          NOT NULL
  , folio_name                      VARCHAR2 (100)                  NOT NULL
  , folio_title                     VARCHAR2 (100)                  
  , folio_subtitle                  VARCHAR2 (250)                  
  , filter_group_id                 NUMBER                          
  , default_output_type_id          NUMBER                          DEFAULT 22      NOT NULL
  , default_chart_type_id           NUMBER                          
  , max_rows_per_section            NUMBER                          
  , owner_user_id                   NUMBER                          
  , created_by                      VARCHAR2 (30)                   
  , created_ts                      DATE                            
  , last_updated_by                 VARCHAR2 (30)                   
  , last_updated_ts                 DATE                            
  , max_rows                        NUMBER                          DEFAULT 1000  NOT NULL
)
PARALLEL
(
  DEGREE            1
  INSTANCES         1
)
;