CREATE TABLE folio_conf.user_group
(
    user_group_id                   INTEGER                         NOT NULL
  , description                     VARCHAR2 (127)                  
)
PARALLEL
(
  DEGREE            1
  INSTANCES         1
)
;