CREATE TABLE metadata.filter_operator
(
    filter_operator_id              NUMBER                          NOT NULL
  , operator_name                   VARCHAR2 (50)                   NOT NULL
  , operator_description            VARCHAR2 (4000)                 
  , operator_pattern                VARCHAR2 (100)                  NOT NULL
  , sql_types                       VARCHAR2 (100)                  
)
PARALLEL
(
  DEGREE            1
  INSTANCES         1
)
;