CREATE TABLE metadata.folio_filter
(
    folio_filter_id                 NUMBER                          NOT NULL
  , folio_id                        NUMBER                          NOT NULL
  , field_id                        NUMBER                          NOT NULL
  , filter_operator_id              NUMBER                          NOT NULL
  , filter_group_id                 NUMBER                          
)
PARALLEL
(
  DEGREE            1
  INSTANCES         1
)
;