CREATE TABLE metadata.show_join
(
    show_join_id                    NUMBER                          NOT NULL
  , from_table                      VARCHAR2 (100)                  NOT NULL
  , to_table                        VARCHAR2 (100)                  
  , join_expression                 VARCHAR2 (4000)                 NOT NULL
)
PARALLEL
(
  DEGREE            1
  INSTANCES         1
)
;