<?xml version="1.0" encoding="utf-8"?>
<!-- Generator: Adobe Illustrator 20.1.0, SVG Export Plug-In . SVG Version: 6.00 Build 0)  -->
<!DOCTYPE svg PUBLIC "-//W3C//DTD SVG 1.1//EN" "http://www.w3.org/Graphics/SVG/1.1/DTD/svg11.dtd">
<svg version="1.1" id="Layer_1" xmlns="http://www.w3.org/2000/svg" xmlns:xlink="http://www.w3.org/1999/xlink" x="0px" y="0px"
	 viewBox="0 0 216 216" enable-background="new 0 0 216 216" xml:space="preserve">
<g>
	<path fill="#E35038" d="M175.3,114.3c-2.5,13-5.8,19.1-11.5,19.1c-3.9,0-5.4-2.6-3.2-11.1l7.7-30.2c3.5-13.6-1.3-23.9-15.9-23.9
		c-13.7,0-21.6,5.7-29.2,17.7c0.9-10.5-3.7-17.4-15.9-17.6l0,0c-0.1,0-0.2,0-0.3,0c0,0-0.1,0-0.1,0c0,0-0.1,0-0.1,0l0,0
		C93.3,68.3,85.5,74,78.1,85.8c0.9-10.7-3.8-17.7-16.5-17.7c-13,0-22.8,6.4-32.1,23.1l5.1-21L3,70.9l-2,8.5h8.8
		c3.5,0,5.3,2.3,4.2,6.6L1.9,141.9h18.5l3.8-17.2c6-27.2,18-44.4,29.5-44.4c6.4,0,7.3,5,4.8,15.6l-10.7,46h18.7l4.4-19.1
		C77,96.3,86.6,80.4,99,80.3c6.3,0.1,7.1,5.1,4.7,15.6l-10.7,46h18.7l4.4-19.1c6.1-26.6,15.8-42.5,28.2-42.5c7.2,0,7.2,6.7,4.8,16.1
		l-6.6,26.9c-3.2,13.4,2.2,20.4,14.6,20.4c15,0,22.9-9,26.6-29.3H175.3z"/>
	<path fill="#598ECB" d="M202.1,147.3c-4.8,0-8.1-3.4-8.1-7.7c0-6.7,5.7-11.8,11.9-11.8c5.3,0,8,3.4,8,7.8
		C214,142.6,208.5,147.3,202.1,147.3z"/>
</g>
</svg>
