CREATE TABLE report.activity_ref
(
    region_id                       NUMBER                          
  , region_name                     VARCHAR2 (50)                   
  , location_name                   VARCHAR2 (50)                   
  , location_id                     NUMBER                          
  , terminal_id                     NUMBER                          
  , terminal_name                   VARCHAR2 (30)                   
  , terminal_nbr                    VARCHAR2 (15)                   
  , tran_id                         NUMBER                          NOT NULL
  , trans_type_id                   NUMBER                          
  , trans_type_name                 VARCHAR2 (50)                   
  , card_number                     VARCHAR2 (50)                   
  , card_company                    VARCHAR2 (4000)                 
  , cc_appr_code                    VARCHAR2 (50)                   
  , tran_date                       DATE                            
  , month_range                     DATE                            
  , week_range                      DATE                            
  , day_range                       DATE                            
  , fill_date                       DATE                            
  , total_amount                    NUMBER   (15,2)                 
  , orig_tran_id                    NUMBER                          
  , batch_id                        NUMBER                          DEFAULT 0 
  , vend_column                     VARCHAR2 (4000)                 
  , quantity                        NUMBER                          
  , ref_nbr                         NUMBER                          DEFAULT 0  
  , eport_id                        NUMBER                          
  , description                     VARCHAR2 (100)                  
  , create_dt                       DATE                            DEFAULT sysdate  
  , update_dt                       DATE                            
  , settle_state                    VARCHAR2 (50)                   
)
ORGANIZATION        HEAP
NOMONITORING
PARALLEL
(
  DEGREE            1
  INSTANCES         1
)
;

COMMENT ON COLUMN report.activity_ref.vend_column IS 'Comma-separated list of columns vended in this transaction' ;