CREATE TABLE report.ccs_transport
(
    ccs_transport_id                NUMBER   (12)                   NOT NULL
  , ccs_transport_type_id           NUMBER   (3)                    NOT NULL
  , ccs_transport_name              VARCHAR2 (100)                  NOT NULL
  , created_by                      VARCHAR2 (30)                   DEFAULT USER   NOT NULL
  , created_ts                      DATE                            DEFAULT SYSDATE   NOT NULL
  , last_updated_by                 VARCHAR2 (30)                   DEFAULT USER   NOT NULL
  , last_updated_ts                 DATE                            DEFAULT SYSDATE   NOT NULL
)
PARALLEL
(
  DEGREE            1
  INSTANCES         1
)
;