CREATE TABLE report.device_type
(
    device_type_id                  NUMBER   (20)                   NOT NULL
  , device_type_desc                VARCHAR2 (60)                   NOT NULL
  , created_by                      VARCHAR2 (30)                   NOT NULL
  , created_ts                      DATE                            NOT NULL
  , last_updated_by                 VARCHAR2 (30)                   NOT NULL
  , last_updated_ts                 DATE                            NOT NULL
)
ORGANIZATION        HEAP
NOMONITORING
PARALLEL
(
  DEGREE            1
  INSTANCES         1
)
;

COMMENT ON TABLE report.device_type IS 'Contains a listing of all the different types of devices.' ;

COMMENT ON COLUMN report.device_type.device_type_id IS 'Surrogate key generated by the system.  Unique identifier for each device type.  Not displayed to the end user and only for internal use.  Used to improve performance of queries.' ;