CREATE TABLE report.fill
(
    fill_id                         NUMBER                          NOT NULL
  , eport_id                        NUMBER                          NOT NULL
  , fill_date                       DATE                            NOT NULL
  , create_date                     DATE                            DEFAULT SYSDATE NOT NULL
)
ORGANIZATION        HEAP
NOMONITORING
PARALLEL
(
  DEGREE            1
  INSTANCES         1
)
;

GRANT references ON report.fill TO corp WITH GRANT OPTION ;

GRANT select ON report.fill TO corp WITH GRANT OPTION ;