CREATE TABLE report.generator
(
    generator_id                    NUMBER                          NOT NULL
  , name                            VARCHAR2 (30)                   
  , cmdline                         VARCHAR2 (255)                  
  , classname                       VARCHAR2 (255)                  
)
ORGANIZATION        HEAP
NOMONITORING
PARALLEL
(
  DEGREE            1
  INSTANCES         1
)
;