CREATE TABLE report.link_requirement
(
    requirement_id                  NUMBER                          NOT NULL
  , link_id                         NUMBER                          NOT NULL
)
ORGANIZATION        HEAP
NOMONITORING
PARALLEL
(
  DEGREE            1
  INSTANCES         1
)
;