CREATE TABLE report.report_request
(
    report_request_id               NUMBER                          NOT NULL
  , report_name                     VARCHAR2 (100)                  NOT NULL
  , report_params                   VARCHAR2 (4000)                 NOT NULL
  , report_params_hash              NUMBER                          NOT NULL
  , profile_id                      NUMBER                          NOT NULL
  , stored_file_id                  NUMBER                          DEFAULT -1
  , report_id                       NUMBER                          
  , folio_ids                       VARCHAR2 (100)                  
  , base_url                        VARCHAR2 (4000)                 
  , locale_cd                       VARCHAR2 (30)                   
  , report_request_status_id        NUMBER                          DEFAULT 0
  , generated_ts                    TIMESTAMP(6)                    
  , created_ts                      TIMESTAMP(6)                    NOT NULL
  , created_by                      VARCHAR2 (30)                   NOT NULL
  , last_updated_ts                 TIMESTAMP(6)                    NOT NULL
  , last_updated_by                 VARCHAR2 (30)                   NOT NULL
  , CONSTRAINT PK_REPORT_REQUEST  PRIMARY KEY (report_request_id)                           
)
TABLESPACE REPORT_DATA
PARALLEL
(
  DEGREE            1
  INSTANCES         1
)
;






