CREATE TABLE report.trans_state
(
    state_id                        NUMBER                          NOT NULL
  , state_name                      VARCHAR2 (50)                   NOT NULL
  , state_label                     VARCHAR2 (50)                   NOT NULL
)
ORGANIZATION        HEAP
NOMONITORING
PARALLEL
(
  DEGREE            1
  INSTANCES         1
)
;

GRANT references ON report.trans_state TO corp WITH GRANT OPTION ;

GRANT select ON report.trans_state TO corp WITH GRANT OPTION ;