//----------------------------------------------------------------------
// Recorded 9/3/2008 by SilkPerformer Recorder v7.7.0.3264
//----------------------------------------------------------------------
@codepage(1252)

benchmark SilkPerformerRecorder

use "WebAPI.bdh"

dcluser
  user
    VUser
  transactions
    TInit           : begin;
    TMain           : 1;
    TEnd            : end;

var

dclrand

dcltrans
  transaction TInit
  begin
    WebSetBrowser(WEB_BROWSER_MOZFIREFOX10);
    //WebSetOption(WEB_OPT_ENABLE_CONTENT_ENCODING, 1); 
    WebModifyHttpHeader("Accept-Language", "en-us,en;q=0.5");
    //WebSetUserBehavior(WEB_USERBEHAVIOR_FIRST_TIME);
    //WebSetDocumentCache(true, WEB_CACHE_CHECK_SESSION);
  end TInit;
  
  transaction TMain
    var
  begin
    SetEncoding("ISO-8859-1");
 
    // Info: HTTP status "404 /favicon.ico" for URLs:
    // https://usastr01/favicon.ico
    // https://usastr01/favicon.ico
    WebIgnoreServerError(404, SEVERITY_INFORMATIONAL, 2);
    WebPageAddUrl("/favicon.ico", FORM_NULL, 2);
    // Parse for string "frame_login.i" to get the URL "https://usastr01/CustomerReporting/frame_login.i"
    WebPageParseUrl("Modified form action URL in page USA Technologies, Inc.", "action = \"", "\"", WEB_FLAG_IGNORE_WHITE_SPACE)
      ;
    WebPageUrl("https://usastr01/CustomerReporting/frame.i", "USA Technologies, Inc.", CUSTOMERREPORTING_FRAME_I001);
 
    // Custom url found in current page
    WebPageSetActionUrl("Modified form action URL in page USA Technologies, Inc.", 4, "contentFrame");
    // Form found in current page
    ThinkTime(17.3);
    WebPageSubmit("info", INFO002, "USA Technologies, Inc. (#1)", 1, "contentFrame"); // Form 2
 
     // Link found in current page
    ThinkTime(8.3);
    WebPageLink("My Homepage", "USA Technologies, Inc. (#4)", 1, "menuFrame"); // Link 2

    WebPageAddUrl("images/nodeOff.png");
    // Link found in current page
    ThinkTime(10.9);
    WebPageLink("Build a Report", "USA Technologies, Inc. (#2)", 1, "menuFrame"); // Link 5
 
    // Form found in current page
    ThinkTime(18.7);
    WebPageSubmit("criteria", CRITERIA003, "USA Technologies, Inc. (#3)", 1, "contentFrame"); // Form 2
 
    // Link found in current page
    ThinkTime(8.3);
    WebPageLink("My Homepage", "USA Technologies, Inc. (#4)", 1, "menuFrame"); // Link 2
 
     // Link found in current page
    ThinkTime(2.7);
    WebPageLink("Logout", "USA Technologies, Inc. (#5)", 1, "menuFrame"); // Link 1

  end TMain;

  transaction TEnd
  begin
//    WebPageLink("Logout", "USA Technologies, Inc. (#5)", 1, "menuFrame"); // Link 1
  end TEnd;

dclform
  CUSTOMERREPORTING_FRAME_I001:
    "content"                   := "login.i";

  INFO002:
    "content"                   := "" <USE_HTML_VAL> , // hidden, unchanged, value: "login.i"
    "requestHandler"            := "" <USE_HTML_VAL> , // hidden, unchanged, value: "my"
    "username"                  := "stesting", // changed
    "password"                  := Decrypt("1lR7BtykB5WA"); // changed

  CRITERIA003:
    "requestHandler"            := "" <USE_HTML_VAL> , // hidden, unchanged, value: "activity"
    "dateFormat"                := "MMMM dd, yyyy", // hidden, changed(!)
    "beginDate"                 := "June 01, 2008", // hidden, changed(!)
    "endDate"                   := "August 31, 2008", // hidden, changed(!)
    "customerId"                := "" <USE_HTML_VAL> , // unchanged, value: "6254"
    "customerId"                := "" <USE_HTML_VAL> , // unchanged, value: "6274"
    "customerId"                := "" <USE_HTML_VAL> , // unchanged, value: "6234"
    "rangeType"                 := "DAY", // added
    "beginMonth"                := "June", // added
    "beginDay"                  := "01", // added
    "beginYear"                 := "2008", // added
    "endMonth"                  := "August", // added
    "endDay"                    := "31", // added
    "endYear"                   := "2008", // added
    "tranType"                  := "" <USE_HTML_VAL> , // unchanged, value: "22"
    "tranType"                  := "" <USE_HTML_VAL> , // unchanged, value: "16, 19"
    "tranType"                  := "" <USE_HTML_VAL> , // unchanged, value: "18, 23"
    "tranType"                  := "" <USE_HTML_VAL> , // unchanged, value: "17"
    "tranType"                  := "" <USE_HTML_VAL> , // unchanged, value: "20, 21"
    "Submit"                    := "" <USE_HTML_VAL> ; // unchanged, value: "Run Report"

