ACTION,SERIAL_NUMBER,DEALER_NAME,BANK_ACCT_ID,ASSET_NUMBER,CLIENT,TELEPHONE,LOCATION_NAME,ADDRESS,CITY,STATE,POSTAL,COUNTRY,LOCATION_DETAILS,LOCATION_TYPE,TIME_ZONE,MACHINE_MAKE,MACHINE_MODEL,PRODUCT_TYPE,REGION,PAY_SCHEDULE,BUSINESS_TYPE,DOING_BUSINESS_AS,CUSTOMER_SERVICE_PHONE, CUSTOMER_SERVICE_EMAIL,MOBILE,ATTENDED,SIGNATURE_CAPTURE,COLUMN_MAP_NAME,COLUMN_MAP
A,K3SAMPLE01,USA Technologies,1,AB2213,,6109890340,Mass Activate #1,76 Grover Pk,Malvern,PA,19314,US,Sample #1,Business / Professional Office,EST,USAT,1902,Industrial Supplies,East Coast,2,Other Non-Traditional,A Sample Company,888-555-1212,sample@sample.com,Y,Y,E,Name of existing column map,
I,G8060000,USA Technologies,2,AC2214,Sample Client,,Mass Activate #2,5 Sample Ln,Kitchener,ON,N2G4R9,CA,Sample #2,Vending/Entertainment/Amusement Park,CST,SampleMake,A21,Food:Breakfast,,1,Vending,,,,N,N,M,,01=A1|02=B1|03=C4
C,VJ100000001,USA Technologies,3,AD2215,Another Client,,Mass Activate #3,912 N. Chesnut Ave,Indianapolis,ID,04000,US,Sample #3,Apartment,MST,SampleMake,B33,Coffee,Region B,1,Coffee/Water,,,,N,N,,,
