simple.bean.converters.BigDecimalConverter
simple.bean.converters.BigIntegerConverter
simple.bean.converters.BooleanConverter
simple.bean.converters.ByteArrayConverter
simple.bean.converters.ByteBufferConverter
simple.bean.converters.ByteConverter
simple.bean.converters.CalendarConverter
simple.bean.converters.CharacterConverter
simple.bean.converters.CharsetConverter
simple.bean.converters.ClassConverter
simple.bean.converters.ColorConverter
simple.bean.converters.ConfigSourceConverter
simple.xml.dom.DOMNodeConverter
simple.xml.dom.DOMNodeListConverter
simple.bean.converters.DateConverter
simple.bean.converters.DimensionConverter
simple.bean.converters.DoubleConverter
simple.bean.converters.EnumConverterFactory
simple.bean.converters.FloatConverter
simple.bean.converters.FormatConverter
simple.bean.converters.InputStreamConverter
simple.bean.converters.IntegerConverter
simple.bean.converters.IntegerRangeSetConverter
simple.bean.converters.IteratorConverter
simple.bean.converters.LocaleConverter
simple.bean.converters.LongConverter
simple.bean.converters.MapConverter
simple.bean.converters.MaskedStringConverter
simple.bean.converters.NumberConverter
simple.bean.converters.PatternedFormatConverterFactory
simple.bean.converters.PropertyConverter
simple.bean.converters.ReaderConverter
simple.bean.converters.SQLTypeConverter
simple.bean.converters.ShortConverter
simple.bean.converters.SqlDateConverter
simple.bean.converters.SqlTimeConverter
simple.bean.converters.SqlTimestampConverter
simple.bean.converters.StringConverter
simple.bean.converters.TimeZoneConverter
simple.bean.converters.URIConverter
simple.bean.converters.URLConverter
simple.bean.converters.InetSocketAddressConverter
simple.bean.converters.InetAddressConverter
simple.param.ParamEditorConverter
simple.bean.converters.LocalDateConverter