CREATE TABLE usat_custom.cce_profit_centers
(
    profit_center                   VARCHAR2 (100)                  
  , profit_center_key               VARCHAR2 (10)                   
  , bw_profit_center                VARCHAR2 (20)                   
  , bw_profit_center_name           VARCHAR2 (100)                  
  , market_unit_num                 VARCHAR2 (20)                   
  , market_unit_name                VARCHAR2 (100)                  
  , business_unit                   VARCHAR2 (20)                   
  , region                          VARCHAR2 (20)                   
  , profit_center_name_abbr         VARCHAR2 (100)                  
  , create_ts                       DATE                            DEFAULT sysdate  NOT NULL
)
ORGANIZATION        HEAP
MONITORING
PARALLEL
(
  DEGREE            1
  INSTANCES         1
)
;