CREATE TABLE usat_custom.cce_fill_state
(
    cce_fill_state_id               NUMBER   (20)                   NOT NULL
  , cce_fill_state_name             VARCHAR2 (60)                   NOT NULL
  , cce_fill_state_desc             VARCHAR2 (255)                  
)
ORGANIZATION        HEAP
MONITORING
PARALLEL
(
  DEGREE            1
  INSTANCES         1
)
;

COMMENT ON TABLE usat_custom.cce_fill_state IS 'Current processing state of a CCE fill event.  Examples may include: New, Batch match incomplete (retry state), Batch matched (final state?).' ;