CREATE TABLE usat_custom.cce_sm_locations
(
    division_num                    VARCHAR2 (5)                    
  , state                           VARCHAR2 (30)                   
  , sales_location_num              VARCHAR2 (5)                    
  , sales_location_name             VARCHAR2 (50)                   
  , create_ts                       DATE                            DEFAULT sysdate  NOT NULL
)
ORGANIZATION        HEAP
MONITORING
PARALLEL
(
  DEGREE            1
  INSTANCES         1
)
;