CREATE TABLE usat_custom.cce_fill_log
(
    cce_fill_log_id                 NUMBER   (20)                   NOT NULL
  , cce_fill_id                     NUMBER   (20)                   NOT NULL
  , cce_fill_log_type_id            NUMBER   (20)                   NOT NULL
  , cce_fill_log_value              VARCHAR2 (255)                  NOT NULL
  , created_by                      VARCHAR2 (30)                   NOT NULL
  , created_ts                      DATE                            NOT NULL
  , last_updated_by                 VARCHAR2 (30)                   NOT NULL
  , last_updated_ts                 DATE                            NOT NULL
  , batch_id                        NUMBER   (20)                   
  , batch_amt                       NUMBER   (20,2)                 
)
ORGANIZATION        HEAP
MONITORING
PARALLEL
(
  DEGREE            1
  INSTANCES         1
)
;

COMMENT ON TABLE usat_custom.cce_fill_log IS 'Log of information regarding the processing of a CCE fill event.' ;