CREATE TABLE usat_custom.mime_type
(
    mime_type_id                    NUMBER   (20)                   NOT NULL
  , mime_type_value                 VARCHAR2 (60)                   NOT NULL
  , created_by                      VARCHAR2 (30)                   NOT NULL
  , created_ts                      DATE                            NOT NULL
)
ORGANIZATION        HEAP
MONITORING
PARALLEL
(
  DEGREE            1
  INSTANCES         1
)
;

COMMENT ON TABLE usat_custom.mime_type IS 'Standard MIME types.' ;