CREATE TABLE usat_custom.sync_event_log
(
    sync_event_log_id               NUMBER   (20)                   NOT NULL
  , sync_engine_id                  NUMBER   (20)                   NOT NULL
  , sync_event_log_type_id          NUMBER   (20)                   NOT NULL
  , created_by                      VARCHAR2 (30)                   NOT NULL
  , created_ts                      DATE                            NOT NULL
  , last_updated_by                 VARCHAR2 (30)                   NOT NULL
  , last_updated_ts                 DATE                            NOT NULL
)
ORGANIZATION        HEAP
MONITORING
PARALLEL
(
  DEGREE            1
  INSTANCES         1
)
;

COMMENT ON TABLE usat_custom.sync_event_log IS 'Log of important events created by Sync Engines.' ;