CREATE TABLE pss.payment_subtype
(
    payment_subtype_id              NUMBER   (20)                   NOT NULL
  , payment_subtype_name            VARCHAR2 (60)                   NOT NULL
  , payment_subtype_class           VARCHAR2 (128)                  
  , payment_subtype_key_name        VARCHAR2 (30)                   NOT NULL
  , created_by                      VARCHAR2 (30)                   NOT NULL
  , created_ts                      DATE                            NOT NULL
  , last_updated_by                 VARCHAR2 (30)                   NOT NULL
  , last_updated_ts                 DATE                            NOT NULL
  , client_payment_type_cd          CHAR     (1)                    
  , payment_subtype_table_name      VARCHAR2 (30)                   NOT NULL
  , payment_subtype_key_desc_name   VARCHAR2 (30)                   NOT NULL
  , payment_subtype_desc            VARCHAR2 (60)                   
  , authority_payment_mask_id       NUMBER   (20)                   NOT NULL
)
ORGANIZATION        HEAP
MONITORING
PARALLEL
(
  DEGREE            1
  INSTANCES         1
)
;