CREATE TABLE pss.rupd$_tran
(
    tran_id                         NUMBER   (20)                   
  , dmltype$$                       VARCHAR2 (1)                    
  , snapid                          INTEGER                         
  , change_vector$$                 RAW      (255)                  
)
ORGANIZATION        

PARALLEL
(
  DEGREE            
  INSTANCES         
)
;

COMMENT ON TABLE pss.rupd$_tran IS 'temporary updatable snapshot log' ;