CREATE TABLE pss.tran_refund_state
(
    tran_refund_state_id            NUMBER   (20)                   NOT NULL
  , tran_refund_state_name          VARCHAR2 (60)                   NOT NULL
)
ORGANIZATION        HEAP
MONITORING
PARALLEL
(
  DEGREE            1
  INSTANCES         1
)
;