//----------------------------------------------------------------------
// Recorded 9/4/2008 by SilkPerformer Recorder v7.7.0.3264
//----------------------------------------------------------------------
@codepage(1252)

benchmark SilkPerformerRecorder

use "WebAPI.bdh"

dcluser
  user
    VUser
  transactions
   // TInit           : 1;
    Log_In          : 1;
    Build_Report    : 1;
    Log_Out         :1;

var
  sCookieBuffer : string;

dclrand

// I want to be able to delete TInit and set the begin attribute for Log_In.
// However, the script then prompts me twice to download a VUser report file.

dcltrans
  //transaction TInit
//  begin
 // end TInit;

  transaction Log_In
  var
  begin
    WebSetBrowser(WEB_BROWSER_MOZFIREFOX10);
    WebModifyHttpHeader("Accept-Language", "en-us,en;q=0.5");
    //WebSetUserBehavior(WEB_USERBEHAVIOR_FIRST_TIME);
    //WebSetDocumentCache(true, WEB_CACHE_CHECK_SESSION);
    SetEncoding("ISO-8859-1");


    WebPageUrl("https://usastr01/CustomerReporting/frame.i", "USA Technologies, Inc.", CUSTOMERREPORTING_FRAME_I001);
    WebCookieGet(sCookieBuffer, STRING_COMPLETE, "https://usastr01/CustomerReporting/frame.i");
 
    WebPageForm("https://usastr01/CustomerReporting/frame_login.i", CUSTOMERREPORTING_FRAME_LOGIN_I003, 
      "USA Technologies, Inc. (#1)");
  end Log_In;

  transaction Build_Report
  var
  begin
    WebPageAddUrl("images/nodeOff.png");
    WebCookieSet(sCookieBuffer, "https://usastr01/CustomerReporting/frame.i");

    WebPageUrl("https://usastr01/CustomerReporting/frame.i", "USA Technologies, Inc. (#2)", CUSTOMERREPORTING_FRAME_I004);
 
    ThinkTime(11.1);
    WebPageSubmit("criteria", CRITERIA005, "USA Technologies, Inc. (#3)", 1, "contentFrame"); // Form 2
 
    ThinkTime(6.3);
    WebPageLink("My Homepage", "USA Technologies, Inc. (#4)", 1, "menuFrame"); // Link 2
  end Build_Report;

  transaction Log_Out
  var
  begin
    WebCookieSet(sCookieBuffer, "https://usastr01/CustomerReporting/frame.i");

    WebPageUrl("https://usastr01/CustomerReporting/logout.i", "USA Technologies, Inc. (#5)");
  end Log_Out;

dclform
  CUSTOMERREPORTING_FRAME_I001:
    "content"                   := "login.i";

  CUSTOMERREPORTING_FRAME_LOGIN_I003:
    "content"                   := "login.i",
    "requestHandler"            := "my",
    "username"                  := "stesting",
    "password"                  := "Stesting1";

  CUSTOMERREPORTING_FRAME_I004 <ENCODE_ESCAPE> :
    "content"                   := "i",
    "bannerImage"               := "/images/banner_activity.gif",
    "requestHandler"            := "tabs",
    "usage"                     := "B";

  CRITERIA005:
    "requestHandler"            := "" <USE_HTML_VAL> , // hidden, unchanged, value: "activity"
    "dateFormat"                := "MMMM dd, yyyy", // hidden, changed(!)
    "beginDate"                 := "June 01, 2008", // hidden, changed(!)
    "endDate"                   := "September 03, 2008", // hidden, changed(!)
    "customerId"                := "" <USE_HTML_VAL> , // unchanged, value: "6254"
    "customerId"                := "" <USE_HTML_VAL> , // unchanged, value: "6274"
    "customerId"                := "" <USE_HTML_VAL> , // unchanged, value: "6234"
    "rangeType"                 := "DAY", // added
    "beginMonth"                := "June", // added
    "beginDay"                  := "01", // added
    "beginYear"                 := "2008", // added
    "endMonth"                  := "September", // added
    "endDay"                    := "03", // added
    "endYear"                   := "2008", // added
    "tranType"                  := "" <USE_HTML_VAL> , // unchanged, value: "22"
    "tranType"                  := "" <USE_HTML_VAL> , // unchanged, value: "16, 19"
    "tranType"                  := "" <USE_HTML_VAL> , // unchanged, value: "18, 23"
    "tranType"                  := "" <USE_HTML_VAL> , // unchanged, value: "17"
    "tranType"                  := "" <USE_HTML_VAL> , // unchanged, value: "20, 21"
    "Submit"                    := "" <USE_HTML_VAL> ; // unchanged, value: "Run Report"

