KeyManagerFactory,SunX509,javax.net.ssl.KeyManagerFactorySpi,simple.security.provider.ssl.DelegatingKeyManagerFactoryImpl
KeyManagerFactory,NewSunX509,javax.net.ssl.KeyManagerFactorySpi,simple.security.provider.ssl.DelegatingKeyManagerFactoryImpl
KeyManagerFactory,X509,javax.net.ssl.KeyManagerFactorySpi,simple.security.provider.ssl.DelegatingKeyManagerFactoryImpl
TrustManagerFactory,SunX509,javax.net.ssl.TrustManagerFactorySpi,simple.security.provider.ssl.DelegatingTrustStoreFactoryImpl
TrustManagerFactory,PKIX,javax.net.ssl.TrustManagerFactorySpi,simple.security.provider.ssl.DelegatingTrustStoreFactoryImpl