CREATE TABLE engine.machine_cmd_inbound_hist
(
    inbound_id                      NUMBER   (20)                   NOT NULL
  , machine_id                      VARCHAR2 (22)                   
  , inbound_date                    DATE                            
  , inbound_command                 VARCHAR2 (4000)                 
  , timestamp                       DATE                            
  , execute_date                    DATE                            
  , execute_cd                      VARCHAR2 (3)                    
  , inbound_msg_no                  NUMBER   (3)                    
  , num_times_executed              NUMBER                          
  , logic_engine_id                 NUMBER   (20)                   
  , session_id                      VARCHAR2 (30)                   
)
ORGANIZATION        HEAP
MONITORING
PARALLEL
(
  DEGREE            1
  INSTANCES         1
)
;